An Analysis of Police Shootings in the United States from 2015-2021
…
Factors.Armed - Indicates whether the victim was armed

Factors.Threat-Level - The level of threat that the victim was perceived by the police (laveled as “attack”, “undetermined”, “other”, or “unknown”)

Methodology

The average age for a police shooting victim is 35; whereas, the median age is 34. We can conclude that the data is not central to 34-35 years of age as the standard deviation of the the victim’s age is ~15 years.

# A tibble: 1 × 3
  mean_age median_age stdv_age
     <dbl>      <dbl>    <dbl>
1     35.4         34     14.9

# A tibble: 6,569 × 17
   Person.N…¹ Perso…² Perso…³ Perso…⁴ Incid…⁵ Incid…⁶ Incid…⁷ Incident…⁸ Incid…⁹
   <chr>        <dbl> <chr>   <chr>     <dbl>   <dbl>   <dbl> <date>     <chr>  
 1 Tim Elliot      53 Male    Asian         1       2    2015 2015-01-02 Shelton
 2 Lewis Lee…      47 Male    White         1       2    2015 2015-01-02 Aloha  
 3 John Paul…      23 Male    Hispan…       1       3    2015 2015-01-03 Wichita
 4 Matthew H…      32 Male    White         1       4    2015 2015-01-04 San Fr…
 5 Michael R…      39 Male    Hispan…       1       4    2015 2015-01-04 Evans  
 6 Kenneth J…      18 Male    White         1       4    2015 2015-01-04 Guthrie
 7 Kenneth A…      22 Male    Hispan…       1       5    2015 2015-01-05 Chandl…
 8 Brock Nic…      35 Male    White         1       6    2015 2015-01-06 Assaria
 9 Autumn St…      34 Female  White         1       6    2015 2015-01-06 Burlin…
10 Leslie Sa…      47 Male    Africa…       1       6    2015 2015-01-06 Knoxvi…
# … with 6,559 more rows, 8 more variables: Incident.Location.State <chr>,
#   Factors.Armed <chr>, `Factors.Mental-Illness` <lgl>,
#   `Factors.Threat-Level` <chr>, Factors.Fleeing <chr>, Shooting.Manner <chr>,
#   `Shooting.Body-Camera` <lgl>, state <chr>, and abbreviated variable names
#   ¹​Person.Name, ²​Person.Age, ³​Person.Gender, ⁴​Person.Race,
#   ⁵​Incident.Date.Month, ⁶​Incident.Date.Day, ⁷​Incident.Date.Year,
#   ⁸​Incident.Date.Full, ⁹​Incident.Location.City
…
